17Nov_collaborative
…
1.3 Geocoding cites

# A tibble: 49 × 5
   filter    count formatted latitude longitude
   <chr>     <chr> <chr>        <dbl>     <dbl>
 1 berlin    218   berlin        52.5    13.4  
 2 amsterdam 143   amsterdam     52.4     4.89 
 3 paris     89    paris         48.9     2.32 
 4 barcelona 83    barcelona     41.4     2.18 
 5 bruxelles 76    bruxelles     50.8     4.35 
 6 toulouse  56    toulouse      43.6     1.44 
 7 lyon      44    lyon          45.8     4.83 
 8 marseille 41    marseille     43.3     5.37 
 9 london    38    london        51.5    -0.144
10 madrid    36    madrid        40.4    -3.70 
# ℹ 39 more rows
…
